[{
	"_id": "a-10",
	"_parentId": "co-01",
	"_type": "article",
	"_classes": "banner_01",
	"body": "",
	"displayTitle": "",
	"title": ""
},
{
	"_id": "a-20",
	"_parentId": "co-02",
	"_type": "article",
	"_classes": "banner_02",
	"body": "",
	"displayTitle": "",
	"title": ""
},
{
	"_id": "a-30",
	"_parentId": "co-03",
	"_type": "article",
	"_classes": "banner_03",
	"body": "",
	"displayTitle": "",
	"title": ""
},
{
	"_id": "a-40",
	"_parentId": "co-04",
	"_type": "article",
	"_classes": "banner_04",
	"body": "",
	"displayTitle": "",
	"title": ""
}
]